{"_links":{"next":{"href":"https://test.moip.com.br/v2/orders?filters=&limit=0&offset=0"},"previous":{"href":"https://test.moip.com.br/v2/orders?filters=&limit=0&offset=0"}},"summary":{"count":1410,"amount":143206880},"orders":[{"id":"ORD-YGTX9WA7LJH4","ownId":"ord-596d0a2f27afd","status":"PAID","blocked":false,"amount":{"total":102470,"addition":0,"fees":0,"deduction":0,"otherReceivers":0,"currency":"BRL"},"receivers":[{"type":"PRIMARY","moipAccount":{"id":"MPA-8D5DBB4EF8B8"}}],"customer":{"fullname":"jose silva","email":"jose_silva0@email.com"},"items":[{"product":null}],"payments":[{"id":"PAY-R4EVDK7XCWXO","installmentCount":1,"fundingInstrument":{"method":"BOLETO","brand":null}}],"events":[{"type":"PAYMENT.AUTHORIZED","createdAt":"2017-07-17T16:04:17Z"}],"_links":{"self":{"href":"https://test.moip.com.br/v2/orders/ORD-YGTX9WA7LJH4"}},"createdAt":"2017-07-17T16:04:15-0300","updatedAt":"2017-07-17T16:04:17-0300"},{"id":"ORD-V3S4BJVZE498","ownId":"ord-596d0a2b8d761","status":"PAID","blocked":false,"amount":{"total":102470,"addition":0,"fees":0,"deduction":0,"otherReceivers":0,"currency":"BRL"},"receivers":[{"type":"PRIMARY","moipAccount":{"id":"MPA-8D5DBB4EF8B8"}}],"customer":{"fullname":"jose silva","email":"jose_silva0@email.com"},"items":[{"product":null}],"payments":[{"id":"PAY-VT4S5A8T7K3Q","installmentCount":1,"fundingInstrument":{"method":"BOLETO","brand":null}}],"events":[{"type":"PAYMENT.AUTHORIZED","createdAt":"2017-07-17T16:04:14Z"}],"_links":{"self":{"href":"https://test.moip.com.br/v2/orders/ORD-V3S4BJVZE498"}},"createdAt":"2017-07-17T16:04:12-0300","updatedAt":"2017-07-17T16:04:14-0300"},{"id":"ORD-G0VSWOKU4XT6","ownId":"ord-596d0a29ccc20","status":"PAID","blocked":false,"amount":{"total":102470,"addition":0,"fees":0,"deduction":0,"otherReceivers":0,"currency":"BRL"},"receivers":[{"type":"PRIMARY","moipAccount":{"id":"MPA-8D5DBB4EF8B8"}}],"customer":{"fullname":"jose silva","email":"jose_silva0@email.com"},"items":[{"product":null}],"payments":[{"id":"PAY-8D4X9ORC3AQE","installmentCount":1,"fundingInstrument":{"method":"CREDIT_CARD","brand":"MASTERCARD"}}],"events":[{"type":"PAYMENT.AUTHORIZED","createdAt":"2017-07-17T16:04:12Z"}],"_links":{"self":{"href":"https://test.moip.com.br/v2/orders/ORD-G0VSWOKU4XT6"}},"createdAt":"2017-07-17T16:04:10-0300","updatedAt":"2017-07-17T16:04:12-0300"},{"id":"ORD-X86V05B9C9KP","ownId":"ord-596d0a2817d20","status":"PAID","blocked":false,"amount":{"total":102470,"addition":0,"fees":0,"deduction":0,"otherReceivers":0,"currency":"BRL"},"receivers":[{"type":"PRIMARY","moipAccount":{"id":"MPA-8D5DBB4EF8B8"}}],"customer":{"fullname":"jose silva","email":"jose_silva0@email.com"},"items":[{"product":null}],"payments":[{"id":"PAY-ZZ6KTYGB0A3W","installmentCount":1,"fundingInstrument":{"method":"CREDIT_CARD","brand":"MASTERCARD"}}],"events":[{"type":"PAYMENT.AUTHORIZED","createdAt":"2017-07-17T16:04:10Z"}],"_links":{"self":{"href":"https://test.moip.com.br/v2/orders/ORD-X86V05B9C9KP"}},"createdAt":"2017-07-17T16:04:08-0300","updatedAt":"2017-07-17T16:04:10-0300"},{"id":"ORD-CH5KC3651X0F","ownId":"ord-596d0a266f3b8","status":"WAITING","blocked":false,"amount":{"total":102470,"addition":0,"fees":0,"deduction":0,"otherReceivers":0,"currency":"BRL"},"receivers":[{"type":"PRIMARY","moipAccount":{"id":"MPA-8D5DBB4EF8B8"}}],"customer":{"fullname":"jose silva","email":"jose_silva0@email.com"},"items":[{"product":null}],"payments":[{"id":"PAY-JJN5HE5UDBI8","installmentCount":1,"fundingInstrument":{"method":"BOLETO","brand":null}}],"events":[],"_links":{"self":{"href":"https://test.moip.com.br/v2/orders/ORD-CH5KC3651X0F"}},"createdAt":"2017-07-17T16:04:07-0300","updatedAt":"2017-07-17T16:04:07-0300"},{"id":"ORD-9K08IRRNFN7B","ownId":"ord-596d0a24ae966","status":"PAID","blocked":false,"amount":{"total":102470,"addition":0,"fees":0,"deduction":0,"otherReceivers":0,"currency":"BRL"},"receivers":[{"type":"PRIMARY","moipAccount":{"id":"MPA-8D5DBB4EF8B8"}}],"customer":{"fullname":"jose silva","email":"jose_silva0@email.com"},"items":[{"product":null}],"payments":[{"id":"PAY-R1TXXR77Q545","installmentCount":1,"fundingInstrument":{"method":"CREDIT_CARD","brand":"MASTERCARD"}}],"events":[{"type":"PAYMENT.AUTHORIZED","createdAt":"2017-07-17T16:04:07Z"}],"_links":{"self":{"href":"https://test.moip.com.br/v2/orders/ORD-9K08IRRNFN7B"}},"createdAt":"2017-07-17T16:04:05-0300","updatedAt":"2017-07-17T16:04:07-0300"},{"id":"ORD-SM7XKXN7MIG5","ownId":"ord-596d0a1d285ad","status":"PAID","blocked":false,"amount":{"total":102470,"addition":0,"fees":0,"deduction":0,"otherReceivers":0,"currency":"BRL"},"receivers":[{"type":"PRIMARY","moipAccount":{"id":"MPA-8D5DBB4EF8B8"}}],"customer":{"fullname":"jose silva","email":"jose_silva0@email.com"},"items":[{"product":null}],"payments":[{"id":"PAY-01G3VA7E68Q6","installmentCount":1,"fundingInstrument":{"method":"CREDIT_CARD","brand":"MASTERCARD"}}],"events":[{"type":"PAYMENT.AUTHORIZED","createdAt":"2017-07-17T16:04:00Z"}],"_links":{"self":{"href":"https://test.moip.com.br/v2/orders/ORD-SM7XKXN7MIG5"}},"createdAt":"2017-07-17T16:03:57-0300","updatedAt":"2017-07-17T16:04:00-0300"},{"id":"ORD-H8LPAPRTTAKZ","ownId":"ord-596cbf48d469e","status":"PAID","blocked":false,"amount":{"total":102470,"addition":0,"fees":0,"deduction":0,"otherReceivers":0,"currency":"BRL"},"receivers":[{"type":"PRIMARY","moipAccount":{"id":"MPA-8D5DBB4EF8B8"}}],"customer":{"fullname":"jose silva","email":"jose_silva0@email.com"},"items":[{"product":null}],"payments":[{"id":"PAY-T7L8KE7PQN5A","installmentCount":1,"fundingInstrument":{"method":"BOLETO","brand":null}}],"events":[{"type":"PAYMENT.AUTHORIZED","createdAt":"2017-07-17T10:44:44Z"}],"_links":{"self":{"href":"https://test.moip.com.br/v2/orders/ORD-H8LPAPRTTAKZ"}},"createdAt":"2017-07-17T10:44:42-0300","updatedAt":"2017-07-17T10:44:44-0300"},{"id":"ORD-YW3TQK546YIC","ownId":"ord-596cbf4561215","status":"PAID","blocked":false,"amount":{"total":102470,"addition":0,"fees":0,"deduction":0,"otherReceivers":0,"currency":"BRL"},"receivers":[{"type":"PRIMARY","moipAccount":{"id":"MPA-8D5DBB4EF8B8"}}],"customer":{"fullname":"jose silva","email":"jose_silva0@email.com"},"items":[{"product":null}],"payments":[{"id":"PAY-9GIQDLRBOIV9","installmentCount":1,"fundingInstrument":{"method":"BOLETO","brand":null}}],"events":[{"type":"PAYMENT.AUTHORIZED","createdAt":"2017-07-17T10:44:40Z"}],"_links":{"self":{"href":"https://test.moip.com.br/v2/orders/ORD-YW3TQK546YIC"}},"createdAt":"2017-07-17T10:44:38-0300","updatedAt":"2017-07-17T10:44:40-0300"},{"id":"ORD-HVR5MWIG0P34","ownId":"ord-596cbf4390fee","status":"PAID","blocked":false,"amount":{"total":102470,"addition":0,"fees":0,"deduction":0,"otherReceivers":0,"currency":"BRL"},"receivers":[{"type":"PRIMARY","moipAccount":{"id":"MPA-8D5DBB4EF8B8"}}],"customer":{"fullname":"jose silva","email":"jose_silva0@email.com"},"items":[{"product":null}],"payments":[{"id":"PAY-IVE2AOU9J2N8","installmentCount":1,"fundingInstrument":{"method":"CREDIT_CARD","brand":"MASTERCARD"}}],"events":[{"type":"PAYMENT.AUTHORIZED","createdAt":"2017-07-17T10:44:38Z"}],"_links":{"self":{"href":"https://test.moip.com.br/v2/orders/ORD-HVR5MWIG0P34"}},"createdAt":"2017-07-17T10:44:37-0300","updatedAt":"2017-07-17T10:44:38-0300"},{"id":"ORD-2J5JLVU7EGKB","ownId":"ord-596cbf41d2fbc","status":"PAID","blocked":false,"amount":{"total":102470,"addition":0,"fees":0,"deduction":0,"otherReceivers":0,"currency":"BRL"},"receivers":[{"type":"PRIMARY","moipAccount":{"id":"MPA-8D5DBB4EF8B8"}}],"customer":{"fullname":"jose silva","email":"jose_silva0@email.com"},"items":[{"product":null}],"payments":[{"id":"PAY-UAFV8545206B","installmentCount":1,"fundingInstrument":{"method":"CREDIT_CARD","brand":"MASTERCARD"}}],"events":[{"type":"PAYMENT.AUTHORIZED","createdAt":"2017-07-17T10:44:37Z"}],"_links":{"self":{"href":"https://test.moip.com.br/v2/orders/ORD-2J5JLVU7EGKB"}},"createdAt":"2017-07-17T10:44:35-0300","updatedAt":"2017-07-17T10:44:37-0300"},{"id":"ORD-HKRZQVRTRDH8","ownId":"ord-596cbf4010d6e","status":"WAITING","blocked":false,"amount":{"total":102470,"addition":0,"fees":0,"deduction":0,"otherReceivers":0,"currency":"BRL"},"receivers":[{"type":"PRIMARY","moipAccount":{"id":"MPA-8D5DBB4EF8B8"}}],"customer":{"fullname":"jose silva","email":"jose_silva0@email.com"},"items":[{"product":null}],"payments":[{"id":"PAY-BCRX4I3AM9KB","installmentCount":1,"fundingInstrument":{"method":"BOLETO","brand":null}}],"events":[],"_links":{"self":{"href":"https://test.moip.com.br/v2/orders/ORD-HKRZQVRTRDH8"}},"createdAt":"2017-07-17T10:44:33-0300","updatedAt":"2017-07-17T10:44:34-0300"},{"id":"ORD-WLBSRO4P4OSN","ownId":"ord-596cbf3e68ecd","status":"PAID","blocked":false,"amount":{"total":102470,"addition":0,"fees":0,"deduction":0,"otherReceivers":0,"currency":"BRL"},"receivers":[{"type":"PRIMARY","moipAccount":{"id":"MPA-8D5DBB4EF8B8"}}],"customer":{"fullname":"jose silva","email":"jose_silva0@email.com"},"items":[{"product":null}],"payments":[{"id":"PAY-X55ILM54CJDD","installmentCount":1,"fundingInstrument":{"method":"CREDIT_CARD","brand":"MASTERCARD"}}],"events":[{"type":"PAYMENT.AUTHORIZED","createdAt":"2017-07-17T10:44:33Z"}],"_links":{"self":{"href":"https://test.moip.com.br/v2/orders/ORD-WLBSRO4P4OSN"}},"createdAt":"2017-07-17T10:44:32-0300","updatedAt":"2017-07-17T10:44:33-0300"},{"id":"ORD-208TQQEBOVGK","ownId":"ord-596cbf370d5b9","status":"PAID","blocked":false,"amount":{"total":102470,"addition":0,"fees":0,"deduction":0,"otherReceivers":0,"currency":"BRL"},"receivers":[{"type":"PRIMARY","moipAccount":{"id":"MPA-8D5DBB4EF8B8"}}],"customer":{"fullname":"jose silva","email":"jose_silva0@email.com"},"items":[{"product":null}],"payments":[{"id":"PAY-4ERO22PR5KR0","installmentCount":1,"fundingInstrument":{"method":"CREDIT_CARD","brand":"MASTERCARD"}}],"events":[{"type":"PAYMENT.AUTHORIZED","createdAt":"2017-07-17T10:44:26Z"}],"_links":{"self":{"href":"https://test.moip.com.br/v2/orders/ORD-208TQQEBOVGK"}},"createdAt":"2017-07-17T10:44:24-0300","updatedAt":"2017-07-17T10:44:26-0300"},{"id":"ORD-Y3BUNI0V0LSW","ownId":"ord-596cbc3254a14","status":"PAID","blocked":false,"amount":{"total":102470,"addition":0,"fees":0,"deduction":0,"otherReceivers":0,"currency":"BRL"},"receivers":[{"type":"PRIMARY","moipAccount":{"id":"MPA-8D5DBB4EF8B8"}}],"customer":{"fullname":"jose silva","email":"jose_silva0@email.com"},"items":[{"product":null}],"payments":[{"id":"PAY-J3S1516G5JVU","installmentCount":1,"fundingInstrument":{"method":"BOLETO","brand":null}}],"events":[{"type":"PAYMENT.AUTHORIZED","createdAt":"2017-07-17T10:31:33Z"}],"_links":{"self":{"href":"https://test.moip.com.br/v2/orders/ORD-Y3BUNI0V0LSW"}},"createdAt":"2017-07-17T10:31:31-0300","updatedAt":"2017-07-17T10:31:33-0300"},{"id":"ORD-Q7NOC8REYY06","ownId":"ord-596cbc2e9590c","status":"PAID","blocked":false,"amount":{"total":102470,"addition":0,"fees":0,"deduction":0,"otherReceivers":0,"currency":"BRL"},"receivers":[{"type":"PRIMARY","moipAccount":{"id":"MPA-8D5DBB4EF8B8"}}],"customer":{"fullname":"jose silva","email":"jose_silva0@email.com"},"items":[{"product":null}],"payments":[{"id":"PAY-HT2FZDWICTK2","installmentCount":1,"fundingInstrument":{"method":"BOLETO","brand":null}}],"events":[{"type":"PAYMENT.AUTHORIZED","createdAt":"2017-07-17T10:31:30Z"}],"_links":{"self":{"href":"https://test.moip.com.br/v2/orders/ORD-Q7NOC8REYY06"}},"createdAt":"2017-07-17T10:31:28-0300","updatedAt":"2017-07-17T10:31:30-0300"},{"id":"ORD-JU20ND03V5HC","ownId":"ord-596cbc2ce0a94","status":"PAID","blocked":false,"amount":{"total":102470,"addition":0,"fees":0,"deduction":0,"otherReceivers":0,"currency":"BRL"},"receivers":[{"type":"PRIMARY","moipAccount":{"id":"MPA-8D5DBB4EF8B8"}}],"customer":{"fullname":"jose silva","email":"jose_silva0@email.com"},"items":[{"product":null}],"payments":[{"id":"PAY-TCDRZ8EF41LL","installmentCount":1,"fundingInstrument":{"method":"CREDIT_CARD","brand":"MASTERCARD"}}],"events":[{"type":"PAYMENT.AUTHORIZED","createdAt":"2017-07-17T10:31:28Z"}],"_links":{"self":{"href":"https://test.moip.com.br/v2/orders/ORD-JU20ND03V5HC"}},"createdAt":"2017-07-17T10:31:26-0300","updatedAt":"2017-07-17T10:31:28-0300"},{"id":"ORD-ZN18QTEJPH8V","ownId":"ord-596cbc2b4331f","status":"PAID","blocked":false,"amount":{"total":102470,"addition":0,"fees":0,"deduction":0,"otherReceivers":0,"currency":"BRL"},"receivers":[{"type":"PRIMARY","moipAccount":{"id":"MPA-8D5DBB4EF8B8"}}],"customer":{"fullname":"jose silva","email":"jose_silva0@email.com"},"items":[{"product":null}],"payments":[{"id":"PAY-PDF6SCXFCSXB","installmentCount":1,"fundingInstrument":{"method":"CREDIT_CARD","brand":"MASTERCARD"}}],"events":[{"type":"PAYMENT.AUTHORIZED","createdAt":"2017-07-17T10:31:26Z"}],"_links":{"self":{"href":"https://test.moip.com.br/v2/orders/ORD-ZN18QTEJPH8V"}},"createdAt":"2017-07-17T10:31:24-0300","updatedAt":"2017-07-17T10:31:26-0300"},{"id":"ORD-ET4URMB22ZEB","ownId":"ord-596cbc299d9b8","status":"WAITING","blocked":false,"amount":{"total":102470,"addition":0,"fees":0,"deduction":0,"otherReceivers":0,"currency":"BRL"},"receivers":[{"type":"PRIMARY","moipAccount":{"id":"MPA-8D5DBB4EF8B8"}}],"customer":{"fullname":"jose silva","email":"jose_silva0@email.com"},"items":[{"product":null}],"payments":[{"id":"PAY-4MKP4WM73M4V","installmentCount":1,"fundingInstrument":{"method":"BOLETO","brand":null}}],"events":[],"_links":{"self":{"href":"https://test.moip.com.br/v2/orders/ORD-ET4URMB22ZEB"}},"createdAt":"2017-07-17T10:31:23-0300","updatedAt":"2017-07-17T10:31:24-0300"},{"id":"ORD-7S9CWLEOMGSI","ownId":"ord-596cbc27c7853","status":"PAID","blocked":false,"amount":{"total":102470,"addition":0,"fees":0,"deduction":0,"otherReceivers":0,"currency":"BRL"},"receivers":[{"type":"PRIMARY","moipAccount":{"id":"MPA-8D5DBB4EF8B8"}}],"customer":{"fullname":"jose silva","email":"jose_silva0@email.com"},"items":[{"product":null}],"payments":[{"id":"PAY-KFPLX5TSEQ3B","installmentCount":1,"fundingInstrument":{"method":"CREDIT_CARD","brand":"MASTERCARD"}}],"events":[{"type":"PAYMENT.AUTHORIZED","createdAt":"2017-07-17T10:31:22Z"}],"_links":{"self":{"href":"https://test.moip.com.br/v2/orders/ORD-7S9CWLEOMGSI"}},"createdAt":"2017-07-17T10:31:21-0300","updatedAt":"2017-07-17T10:31:22-0300"}]}