{"summary":{"amount":67958700,"count":254},"_links":{"previous":{"href":"https://sandbox.moip.com.br/v2/entries?offset=0&limit=20"},"next":{"href":"https://sandbox.moip.com.br/v2/entries?offset=20&limit=20"}},"entries":[{"reschedule":[],"scheduledFor":"2017-07-20T16:54:00.000Z","status":"SCHEDULED","_links":{"order":{"title":"ORD-ZNCBW32Q46FK","href":"https://sandbox.moip.com.br/v2/orders/ORD-ZNCBW32Q46FK"},"payment":{"title":"PAY-4C6FWZ9P05HZ","href":"https://sandbox.moip.com.br/v2/payments/PAY-4C6FWZ9P05HZ"},"self":{"title":"ENT-PA0KQG8CCI4O","href":"https://sandbox.moip.com.br/v2/entries/ENT-PA0KQG8CCI4O"}},"type":"CREDIT_CARD","ownId":"seu_identificador_proprio","updatedAt":"2017-07-06T13:54:01.000Z","id":"ENT-PA0KQG8CCI4O","amount":{"fee":179,"total":2000,"liquid":1821,"currency":"BRL"},"operation":"CREDIT","event":"PAY-4C6FWZ9P05HZ","description":"Cartao de credito - Pedido PAY-4C6FWZ9P05HZ","createdAt":"2017-07-06T13:54:01.000Z","occurrence":{"to":1,"in":1},"blocked":false,"additionalId":36494111},{"reschedule":[],"scheduledFor":"2017-08-17T16:58:08.000Z","status":"SETTLED","_links":{"self":{"title":"ENT-3QEC6KYWLA7E","href":"https://sandbox.moip.com.br/v2/entries/ENT-3QEC6KYWLA7E"}},"type":"AMOUNT_BLOCKED","ownId":"","updatedAt":"2017-08-17T13:58:08.000Z","id":"ENT-3QEC6KYWLA7E","amount":{"fee":0,"total":-14107,"liquid":-14107,"currency":"BRL"},"operation":"DEBIT","createdAt":"2017-08-17T13:58:08.000Z","event":"PAY-Z9B2ZSKZ6MEW","description":"Cartao de credito - Pedido PAY-Z9B2ZSKZ6MEW","occurrence":{"to":1,"in":1},"blocked":false,"settledAt":"2017-08-17T13:58:08.000Z","additionalId":36528311},{"reschedule":[],"scheduledFor":"2017-08-25T14:22:09.000Z","status":"SETTLED","_links":{"order":{"title":"ORD-0Q2WZLHFFHOY","href":"https://sandbox.moip.com.br/v2/orders/ORD-0Q2WZLHFFHOY"},"payment":{"title":"PAY-10C3S84K4C42","href":"https://sandbox.moip.com.br/v2/payments/PAY-10C3S84K4C42"},"self":{"title":"ENT-P2X6WSVJ4ZSB","href":"https://sandbox.moip.com.br/v2/entries/ENT-P2X6WSVJ4ZSB"}},"type":"CREDIT_CARD","ownId":"seu_identificador_proprio","updatedAt":"2017-08-25T00:20:17.000Z","id":"ENT-P2X6WSVJ4ZSB","amount":{"fee":0,"total":1400,"liquid":1400,"currency":"BRL"},"operation":"CREDIT","createdAt":"2017-08-11T14:22:10.000Z","event":"PAY-10C3S84K4C42","description":"Cartao de credito - Pedido PAY-10C3S84K4C42","occurrence":{"to":1,"in":1},"blocked":false,"settledAt":"2017-08-25T00:20:17.000Z","additionalId":36523551},{"reschedule":[],"scheduledFor":"2017-08-25T17:10:11.000Z","status":"SETTLED","_links":{"order":{"title":"ORD-0KPVXM1EFT64","href":"https://sandbox.moip.com.br/v2/orders/ORD-0KPVXM1EFT64"},"payment":{"title":"PAY-K59ZJX9HTS0G","href":"https://sandbox.moip.com.br/v2/payments/PAY-K59ZJX9HTS0G"},"self":{"title":"ENT-AOFGIDXJR54L","href":"https://sandbox.moip.com.br/v2/entries/ENT-AOFGIDXJR54L"}},"type":"CREDIT_CARD","ownId":"seu_identificador_proprio","updatedAt":"2017-08-25T00:20:16.000Z","id":"ENT-AOFGIDXJR54L","amount":{"fee":0,"total":1400,"liquid":1400,"currency":"BRL"},"operation":"CREDIT","createdAt":"2017-08-11T14:10:12.000Z","event":"PAY-K59ZJX9HTS0G","description":"Cartao de credito - Pedido PAY-K59ZJX9HTS0G","occurrence":{"to":1,"in":1},"blocked":false,"settledAt":"2017-08-25T00:20:16.000Z","additionalId":36523463},{"reschedule":[],"scheduledFor":"2017-08-31T14:28:50.000Z","status":"SETTLED","_links":{"order":{"title":"ORD-XBQTYRTKWBCY","href":"https://sandbox.moip.com.br/v2/orders/ORD-XBQTYRTKWBCY"},"payment":{"title":"PAY-Z9B2ZSKZ6MEW","href":"https://sandbox.moip.com.br/v2/payments/PAY-Z9B2ZSKZ6MEW"},"self":{"title":"ENT-BCBGE6L1H7M5","href":"https://sandbox.moip.com.br/v2/entries/ENT-BCBGE6L1H7M5"}},"type":"CREDIT_CARD","ownId":"Teste","updatedAt":"2017-08-17T16:58:08.000Z","id":"ENT-BCBGE6L1H7M5","amount":{"fee":893,"total":15000,"liquid":14107,"currency":"BRL"},"operation":"CREDIT","createdAt":"2017-08-17T11:28:51.000Z","event":"PAY-Z9B2ZSKZ6MEW","description":"Cartao de credito - Pedido PAY-Z9B2ZSKZ6MEW","occurrence":{"to":1,"in":1},"blocked":false,"settledAt":"2017-08-17T16:58:08.000Z","additionalId":36527982},{"reschedule":[],"scheduledFor":"2017-09-02T03:00:00.000Z","status":"SETTLED","_links":{"order":{"title":"ORD-SNRXTZOCM2CI","href":"https://sandbox.moip.com.br/v2/orders/ORD-SNRXTZOCM2CI"},"self":{"title":"ENT-XHBKH8GXQ5IY","href":"https://sandbox.moip.com.br/v2/entries/ENT-XHBKH8GXQ5IY"}},"type":"CREDIT_CARD","ownId":"null","updatedAt":"2017-09-02T00:20:08.000Z","id":"ENT-XHBKH8GXQ5IY","amount":{"fee":96,"total":500,"liquid":404,"currency":"BRL"},"operation":"CREDIT","createdAt":"2017-08-21T13:22:21.000Z","event":"PAY-FSCC1UB6SQH9","description":"Cartao de credito - Pedido ORD-SNRXTZOCM2CI","occurrence":{"to":1,"in":1},"blocked":false,"settledAt":"2017-09-02T00:20:08.000Z","additionalId":36531393},{"reschedule":[],"scheduledFor":"2017-09-02T03:00:00.000Z","status":"SETTLED","_links":{"order":{"title":"ORD-TOGQOL3UL355","href":"https://sandbox.moip.com.br/v2/orders/ORD-TOGQOL3UL355"},"self":{"title":"ENT-4TBGZONW5QUQ","href":"https://sandbox.moip.com.br/v2/entries/ENT-4TBGZONW5QUQ"}},"type":"CREDIT_CARD","ownId":"null","updatedAt":"2017-09-02T00:20:07.000Z","id":"ENT-4TBGZONW5QUQ","amount":{"fee":96,"total":500,"liquid":404,"currency":"BRL"},"operation":"CREDIT","createdAt":"2017-08-21T13:22:21.000Z","event":"PAY-B7BDFH7EQSN6","description":"Cartao de credito - Pedido ORD-TOGQOL3UL355","occurrence":{"to":1,"in":1},"blocked":false,"settledAt":"2017-09-02T00:20:07.000Z","additionalId":36531372},{"reschedule":[],"scheduledFor":"2017-09-03T00:00:00.000Z","status":"SETTLED","_links":{"order":{"title":"ORD-53XZ7YAP1VDY","href":"https://sandbox.moip.com.br/v2/orders/ORD-53XZ7YAP1VDY"},"self":{"title":"ENT-Y80GKB1A4VPL","href":"https://sandbox.moip.com.br/v2/entries/ENT-Y80GKB1A4VPL"}},"type":"CREDIT_CARD","ownId":"null","updatedAt":"2017-09-03T00:20:05.000Z","id":"ENT-Y80GKB1A4VPL","amount":{"fee":96,"total":500,"liquid":404,"currency":"BRL"},"operation":"CREDIT","createdAt":"2017-08-21T13:22:23.000Z","event":"PAY-LS0DT9P1HT71","description":"Cartao de credito - Pedido ORD-53XZ7YAP1VDY","occurrence":{"to":1,"in":1},"blocked":false,"settledAt":"2017-09-03T00:20:05.000Z","additionalId":36531488},{"reschedule":[],"scheduledFor":"2017-09-03T03:00:00.000Z","status":"SETTLED","_links":{"order":{"title":"ORD-EYJIE95YXJ4J","href":"https://sandbox.moip.com.br/v2/orders/ORD-EYJIE95YXJ4J"},"self":{"title":"ENT-VUT8V6F9RKR3","href":"https://sandbox.moip.com.br/v2/entries/ENT-VUT8V6F9RKR3"}},"type":"CREDIT_CARD","ownId":"null","updatedAt":"2017-09-03T00:20:06.000Z","id":"ENT-VUT8V6F9RKR3","amount":{"fee":96,"total":500,"liquid":404,"currency":"BRL"},"operation":"CREDIT","createdAt":"2017-08-21T13:22:23.000Z","event":"PAY-P5FITFFCNA96","description":"Cartao de credito - Pedido ORD-EYJIE95YXJ4J","occurrence":{"to":1,"in":1},"blocked":false,"settledAt":"2017-09-03T00:20:06.000Z","additionalId":36531526},{"reschedule":[],"scheduledFor":"2017-09-08T17:24:24.000Z","status":"SETTLED","_links":{"order":{"title":"ORD-AOY2IS0G5ANL","href":"https://sandbox.moip.com.br/v2/orders/ORD-AOY2IS0G5ANL"},"payment":{"title":"PAY-QXJHUN4GUP4X","href":"https://sandbox.moip.com.br/v2/payments/PAY-QXJHUN4GUP4X"},"self":{"title":"ENT-9CZJ2LN423T0","href":"https://sandbox.moip.com.br/v2/entries/ENT-9CZJ2LN423T0"}},"type":"CREDIT_CARD","ownId":"078e3f69c751940e1346e5ad06ca21e59e805899","updatedAt":"2017-09-08T00:20:42.000Z","id":"ENT-9CZJ2LN423T0","amount":{"fee":11689,"total":80577,"liquid":68888,"currency":"BRL"},"operation":"CREDIT","createdAt":"2017-08-25T14:24:25.000Z","event":"PAY-QXJHUN4GUP4X","description":"Cartao de credito - Pedido PAY-QXJHUN4GUP4X","occurrence":{"to":1,"in":1},"blocked":false,"settledAt":"2017-09-08T00:20:42.000Z","additionalId":36540819},{"reschedule":[],"scheduledFor":"2017-09-12T12:02:13.000Z","status":"SETTLED","_links":{"order":{"title":"ORD-UBX2GBZG33FK","href":"https://sandbox.moip.com.br/v2/orders/ORD-UBX2GBZG33FK"},"payment":{"title":"PAY-3MS6WORMH8DI","href":"https://sandbox.moip.com.br/v2/payments/PAY-3MS6WORMH8DI"},"self":{"title":"ENT-QL45ISIGQCG1","href":"https://sandbox.moip.com.br/v2/entries/ENT-QL45ISIGQCG1"}},"type":"CREDIT_CARD","ownId":"22c8c9295de9997f887f6d72e92775738f6cc0e2","updatedAt":"2017-09-12T00:20:12.000Z","id":"ENT-QL45ISIGQCG1","amount":{"fee":17727,"total":114278,"liquid":96551,"currency":"BRL"},"operation":"CREDIT","createdAt":"2017-08-29T09:02:14.000Z","event":"PAY-3MS6WORMH8DI","description":"Cartao de credito - Pedido PAY-3MS6WORMH8DI","occurrence":{"to":1,"in":1},"blocked":false,"settledAt":"2017-09-12T00:20:12.000Z","additionalId":36543194},{"reschedule":[],"scheduledFor":"2017-09-22T16:21:23.000Z","status":"SETTLED","_links":{"order":{"title":"ORD-K9YKBLYXQ8RN","href":"https://sandbox.moip.com.br/v2/orders/ORD-K9YKBLYXQ8RN"},"payment":{"title":"PAY-JIZTK9VIZPHE","href":"https://sandbox.moip.com.br/v2/payments/PAY-JIZTK9VIZPHE"},"self":{"title":"ENT-QDFOG120NNU2","href":"https://sandbox.moip.com.br/v2/entries/ENT-QDFOG120NNU2"}},"type":"CREDIT_CARD","ownId":"identificador_proprio","updatedAt":"2017-09-22T00:20:21.000Z","id":"ENT-QDFOG120NNU2","amount":{"fee":179,"total":2000,"liquid":1821,"currency":"BRL"},"operation":"CREDIT","createdAt":"2017-09-08T13:21:24.000Z","event":"PAY-JIZTK9VIZPHE","description":"Cartao de credito - Pedido PAY-JIZTK9VIZPHE","occurrence":{"to":1,"in":1},"blocked":false,"settledAt":"2017-09-22T00:20:21.000Z","additionalId":36554486},{"reschedule":[],"scheduledFor":"2017-09-22T16:23:41.000Z","status":"SETTLED","_links":{"order":{"title":"ORD-5VIYKTMY5KEV","href":"https://sandbox.moip.com.br/v2/orders/ORD-5VIYKTMY5KEV"},"payment":{"title":"PAY-ZKVQTVMD8SJ4","href":"https://sandbox.moip.com.br/v2/payments/PAY-ZKVQTVMD8SJ4"},"self":{"title":"ENT-E50Q8XJJ275K","href":"https://sandbox.moip.com.br/v2/entries/ENT-E50Q8XJJ275K"}},"type":"CREDIT_CARD","ownId":"identificador_proprio2","updatedAt":"2017-09-22T00:20:21.000Z","id":"ENT-E50Q8XJJ275K","amount":{"fee":179,"total":2000,"liquid":1821,"currency":"BRL"},"operation":"CREDIT","createdAt":"2017-09-08T13:23:42.000Z","event":"PAY-ZKVQTVMD8SJ4","description":"Cartao de credito - Pedido PAY-ZKVQTVMD8SJ4","occurrence":{"to":1,"in":1},"blocked":false,"settledAt":"2017-09-22T00:20:21.000Z","additionalId":36554489},{"reschedule":[],"scheduledFor":"2017-09-28T19:26:17.000Z","status":"SETTLED","_links":{"order":{"title":"ORD-PBTN7AI02SFF","href":"https://sandbox.moip.com.br/v2/orders/ORD-PBTN7AI02SFF"},"payment":{"title":"PAY-1RPZO7YWZROC","href":"https://sandbox.moip.com.br/v2/payments/PAY-1RPZO7YWZROC"},"self":{"title":"ENT-RU6GRG5OHBXQ","href":"https://sandbox.moip.com.br/v2/entries/ENT-RU6GRG5OHBXQ"}},"type":"CREDIT_CARD","ownId":"2268","updatedAt":"2017-09-28T00:20:24.000Z","id":"ENT-RU6GRG5OHBXQ","amount":{"fee":453,"total":7000,"liquid":6547,"currency":"BRL"},"operation":"CREDIT","createdAt":"2017-09-14T16:26:17.000Z","event":"PAY-1RPZO7YWZROC","description":"Cartao de credito - Pedido PAY-1RPZO7YWZROC","occurrence":{"to":1,"in":1},"blocked":false,"settledAt":"2017-09-28T00:20:24.000Z","additionalId":36559382},{"reschedule":[],"scheduledFor":"2017-09-29T16:24:40.000Z","status":"SETTLED","_links":{"order":{"title":"ORD-B8MOAUFKN7PJ","href":"https://sandbox.moip.com.br/v2/orders/ORD-B8MOAUFKN7PJ"},"payment":{"title":"PAY-5E330RWMYRW0","href":"https://sandbox.moip.com.br/v2/payments/PAY-5E330RWMYRW0"},"self":{"title":"ENT-9QQ7M3YVFHU2","href":"https://sandbox.moip.com.br/v2/entries/ENT-9QQ7M3YVFHU2"}},"type":"CREDIT_CARD","ownId":"seu_identificador_propriosss","updatedAt":"2017-09-29T00:20:17.000Z","id":"ENT-9QQ7M3YVFHU2","amount":{"fee":179,"total":2000,"liquid":1821,"currency":"BRL"},"operation":"CREDIT","createdAt":"2017-09-15T13:24:41.000Z","event":"PAY-5E330RWMYRW0","description":"Cartao de credito - Pedido PAY-5E330RWMYRW0","occurrence":{"to":1,"in":1},"blocked":false,"settledAt":"2017-09-29T00:20:17.000Z","additionalId":36560079},{"reschedule":[],"scheduledFor":"2017-10-24T08:43:00.000Z","status":"SETTLED","_links":{"order":{"title":"ORD-7N0DTC9WDTM6","href":"https://sandbox.moip.com.br/v2/orders/ORD-7N0DTC9WDTM6"},"payment":{"title":"PAY-2A82U10PCWCY","href":"https://sandbox.moip.com.br/v2/payments/PAY-2A82U10PCWCY"},"self":{"title":"ENT-XYVK45APLP4X","href":"https://sandbox.moip.com.br/v2/entries/ENT-XYVK45APLP4X"}},"type":"COMMISSION","ownId":"","updatedAt":"2017-10-24T00:20:04.000Z","id":"ENT-XYVK45APLP4X","amount":{"fee":0,"total":55,"liquid":55,"currency":"BRL"},"operation":"CREDIT","createdAt":"2017-10-10T08:43:01.000Z","event":"PAY-2A82U10PCWCY","description":"Recebedor secundario - Pedido PAY-2A82U10PCWCY","occurrence":{"to":1,"in":1},"blocked":false,"settledAt":"2017-10-24T00:20:04.000Z","additionalId":36587721},{"reschedule":[],"scheduledFor":"2017-10-24T08:43:00.000Z","status":"SETTLED","_links":{"order":{"title":"ORD-4GHL70Y4P2HQ","href":"https://sandbox.moip.com.br/v2/orders/ORD-4GHL70Y4P2HQ"},"payment":{"title":"PAY-2QFHVUE7DLOY","href":"https://sandbox.moip.com.br/v2/payments/PAY-2QFHVUE7DLOY"},"self":{"title":"ENT-2CMLE4TLSNB0","href":"https://sandbox.moip.com.br/v2/entries/ENT-2CMLE4TLSNB0"}},"type":"COMMISSION","ownId":"","updatedAt":"2017-10-24T00:20:04.000Z","id":"ENT-2CMLE4TLSNB0","amount":{"fee":0,"total":55,"liquid":55,"currency":"BRL"},"operation":"CREDIT","createdAt":"2017-10-10T08:43:01.000Z","event":"PAY-2QFHVUE7DLOY","description":"Recebedor secundario - Pedido PAY-2QFHVUE7DLOY","occurrence":{"to":1,"in":1},"blocked":false,"settledAt":"2017-10-24T00:20:04.000Z","additionalId":36587723},{"reschedule":[],"scheduledFor":"2017-10-25T08:38:27.000Z","status":"SETTLED","_links":{"order":{"title":"ORD-B3ZR1HULRQT5","href":"https://sandbox.moip.com.br/v2/orders/ORD-B3ZR1HULRQT5"},"payment":{"title":"PAY-3FDV42D6N5AD","href":"https://sandbox.moip.com.br/v2/payments/PAY-3FDV42D6N5AD"},"self":{"title":"ENT-UQXVJ9P0HIJ4","href":"https://sandbox.moip.com.br/v2/entries/ENT-UQXVJ9P0HIJ4"}},"type":"CREDIT_CARD","ownId":"testeCheckout","updatedAt":"2017-10-25T00:20:07.000Z","id":"ENT-UQXVJ9P0HIJ4","amount":{"fee":179,"total":2000,"liquid":1821,"currency":"BRL"},"operation":"CREDIT","createdAt":"2017-10-11T08:38:27.000Z","event":"PAY-3FDV42D6N5AD","description":"Cartao de credito - Pedido PAY-3FDV42D6N5AD","occurrence":{"to":1,"in":1},"blocked":false,"settledAt":"2017-10-25T00:20:07.000Z","additionalId":36590609},{"reschedule":[],"scheduledFor":"2017-10-26T09:17:25.000Z","status":"SETTLED","_links":{"self":{"title":"ENT-3COM135CBUIW","href":"https://sandbox.moip.com.br/v2/entries/ENT-3COM135CBUIW"}},"type":"TRANSFER_TO_BANK_ACCOUNT","ownId":"","updatedAt":"2017-10-26T09:17:26.000Z","id":"ENT-3COM135CBUIW","amount":{"fee":0,"total":-500,"liquid":-500,"currency":"BRL"},"operation":"DEBIT","createdAt":"2017-10-26T09:17:25.000Z","event":"TRA-Q3FAM5S6JPG7","description":"Transferencia para conta bancaria - TRA-Q3FAM5S6JPG7","occurrence":{"to":1,"in":1},"blocked":false,"settledAt":"2017-10-26T09:17:26.000Z","additionalId":36605837},{"reschedule":[],"scheduledFor":"2017-10-26T09:18:24.000Z","status":"SETTLED","_links":{"self":{"title":"ENT-X0JNERLAZ7BP","href":"https://sandbox.moip.com.br/v2/entries/ENT-X0JNERLAZ7BP"}},"type":"TRANSFER_TO_BANK_ACCOUNT","ownId":"","updatedAt":"2017-10-26T09:18:24.000Z","id":"ENT-X0JNERLAZ7BP","amount":{"fee":0,"total":-500,"liquid":-500,"currency":"BRL"},"operation":"DEBIT","createdAt":"2017-10-26T09:18:24.000Z","event":"TRA-CCGUEVQ8HTFW","description":"Transferencia para conta bancaria - TRA-CCGUEVQ8HTFW","occurrence":{"to":1,"in":1},"blocked":false,"settledAt":"2017-10-26T09:18:24.000Z","additionalId":36605842}]}